#ID   x    y
0 20.0 20.0
1 60.0 20.0
2 100.0 20.0
3 140.0 20.0
4 180.0 20.0
5 220.0 20.0
6 260.0 20.0
7 300.0 20.0
8 340.0 20.0
9 380.0 20.0
10 20.0 60.0
11 60.0 60.0
12 100.0 60.0
13 140.0 60.0
14 180.0 60.0
15 220.0 60.0
16 260.0 60.0
17 300.0 60.0
18 340.0 60.0
19 380.0 60.0
20 20.0 100.0
21 60.0 100.0
22 100.0 100.0
23 140.0 100.0
24 180.0 100.0
25 220.0 100.0
26 260.0 100.0
27 300.0 100.0
28 340.0 100.0
29 380.0 100.0
30 20.0 140.0
31 60.0 140.0
32 100.0 140.0
33 140.0 140.0
34 180.0 140.0
35 220.0 140.0
36 260.0 140.0
37 300.0 140.0
38 340.0 140.0
39 380.0 140.0
40 20.0 180.0
41 60.0 180.0
42 100.0 180.0
43 140.0 180.0
44 180.0 180.0
45 220.0 180.0
46 260.0 180.0
47 300.0 180.0
48 340.0 180.0
49 380.0 180.0
50 20.0 220.0
51 60.0 220.0
52 100.0 220.0
53 140.0 220.0
54 180.0 220.0
55 220.0 220.0
56 260.0 220.0
57 300.0 220.0
58 340.0 220.0
59 380.0 220.0
60 20.0 260.0
61 60.0 260.0
62 100.0 260.0
63 140.0 260.0
64 180.0 260.0
65 220.0 260.0
66 260.0 260.0
67 300.0 260.0
68 340.0 260.0
69 380.0 260.0
70 20.0 300.0
71 60.0 300.0
72 100.0 300.0
73 140.0 300.0
74 180.0 300.0
75 220.0 300.0
76 260.0 300.0
77 300.0 300.0
78 340.0 300.0
79 380.0 300.0
80 20.0 340.0
81 60.0 340.0
82 100.0 340.0
83 140.0 340.0
84 180.0 340.0
85 220.0 340.0
86 260.0 340.0
87 300.0 340.0
88 340.0 340.0
89 380.0 340.0
90 20.0 380.0
91 60.0 380.0
92 100.0 380.0
93 140.0 380.0
94 180.0 380.0
95 220.0 380.0
96 260.0 380.0
97 300.0 380.0
98 340.0 380.0
99 380.0 380.0
